plano,codigo_beneficiario,cpf,nome_beneficiario,matricula,tipo,sexo,data_nascimento,data_inclusao,data_fim_inatividade,situacao,centro_de_custo,contrato,vinculo,data_admissao
444061 AMB-HOSP-OBS-APT - REEMBOLSO,0865.0003.222871.00-9,61833102045,MARCOS LIMA TESTE,1000,TITULAR,M,21/9/1992,18/10/2020,,ativo,não informado,74404,pai,19/10/2020
444002 AMB-HOSP-OBS-APT - INCLUSAO,0865.0003.333947.00-9,899.011.980-46,Enzo Valentino,1000,DEPENDENTE,m,10/10/10,20/01/21,,ativo,não informado,74404,filho,19/10/2020
444002 AMB-HOSP-OBS-APT - INCLUSAO,0865.0003.333947.00-9,899.011.980-46,Enzo Valentino,1001,DEPENDENTE,m,10/10/10,20/01/21,,ativo,não informado,74404,filho,19/10/2020
444002 AMB-HOSP-OBS-APT - INCLUSAO,0865.0003.333947.00-8,13512981003,Valentina Oliveira,1002,DEPENTENDE,g,21/10/2021,,,inativo,não informado,74404,filha,19/10/2020
444002 AMB-HOSP-OBS-APT – REEMBOLSO,0865.0003.333947.00-7,13512981003,Flávia Almeida Alencar,1003,TITULAR,f,12-10-1968,18/10/2020,,ativo,não informado,74404,,19/10/2020
444002 AMB-HOSP-OBS-APT – ATUALIZACAO,0865.0003.333947.00-6,13512981003,Ambrósio,1004,TITULAR,f,11/08/1926,18/10/2020,,ativo,não informado,74404,,19/10/2020